﻿{
  "configurations": [
    {
      "name": "Development [MSVC]",
      "generator": "Ninja",
      "configurationType": "Debug",
      "inheritEnvironments": [ "msvc_x64_x64" ],
      "buildRoot": "${projectDir}\\\\Build\\\\MSVC\\Windows_x86-64\\Dev",
      "installRoot": "${projectDir}\\Binaries\\Windows\\Development",
      "cmakeCommandArgs": "-DCMAKE_BUILD_TYPE=Debug",
      "buildCommandArgs": "",
      "ctestCommandArgs": ""
    },
    {
      "name": "Production Debug [MSVC]",
      "generator": "Ninja",
      "configurationType": "RelWithDebInfo",
      "inheritEnvironments": [ "msvc_x64_x64" ],
      "buildRoot": "${projectDir}\\\\Build\\\\MSVC\\Windows_x86-64\\ProdDbg",
      "installRoot": "${projectDir}\\Binaries\\Windows\\ProductionDebug",
      "cmakeCommandArgs": "-DCMAKE_BUILD_TYPE=RelWithDebInfo",
      "buildCommandArgs": "",
      "ctestCommandArgs": ""
    },
    {
      "name": "Production [MSVC]",
      "generator": "Ninja",
      "configurationType": "Release",
      "inheritEnvironments": [ "msvc_x64_x64" ],
      "buildRoot": "${projectDir}\\\\Build\\\\MSVC\\Windows_x86-64\\Prod",
      "installRoot": "${projectDir}\\Binaries\\Windows\\Production",
      "cmakeCommandArgs": "-DCMAKE_BUILD_TYPE=Release",
      "buildCommandArgs": "",
      "ctestCommandArgs": ""
    }
  ]
}